…
## Usage

### Support to usage of CoDEdit tool

1.  Perform checks on existing input data for CoDEdit tool

Using the `icd10_example` dataset which is a dataset already formatted
into a compatible structure required by the CoDEdit tool, we can perform
a check on this dataset to see possible issues in its formatting and
structure before using with the CoDEdit tool.

``` r
cod_check_codedit_input(icd10_example)
#> # A tibble: 3,613 × 8
#>    sex_check sex_check_note  age_check age_check_note code_check code_check_note
#>        <int> <chr>               <int> <fct>               <int> <chr>          
#>  1         0 No issues with…         0 No issues wit…          0 Cause of death…
#>  2         0 No issues with…         0 No issues wit…          0 Cause of death…
#>  3         0 No issues with…         0 No issues wit…          0 Cause of death…
#>  4         0 No issues with…         0 No issues wit…          0 Cause of death…
#>  5         0 No issues with…         0 No issues wit…          0 Cause of death…
#>  6         0 No issues with…         0 No issues wit…          0 Cause of death…
#>  7         0 No issues with…         0 No issues wit…          0 Cause of death…
#>  8         0 No issues with…         0 No issues wit…          0 Cause of death…
#>  9         0 No issues with…         0 No issues wit…          0 Cause of death…
#> 10         0 No issues with…         0 No issues wit…          0 Cause of death…
#> # ℹ 3,603 more rows
#> # ℹ 2 more variables: dod_check <int>, dod_check_note <chr>
```
…
