Implementing Cause-of-Death Data Checks with codeditr • codeditr
…
Workflows for cause-of-death data processing and data quality checks
using codeditr

Perform checks on existing input data for CoDEdit tool

Using the icd10_example dataset which is a dataset
already formatted into a compatible structure required by the CoDEdit
tool, we can perform a check on this dataset to see possible issues in
its formatting and structure before using with the CoDEdit tool.

cod_check_codedit_input(icd10_example)
#> # A tibble: 3,613 × 8
#>    sex_check sex_check_note  age_check age_check_note code_check code_check_note
#>        <int> <fct>               <int> <fct>               <int> <chr>          
#>  1         0 No issues with…         0 No issues wit…          0 Cause of death…
#>  2         0 No issues with…         0 No issues wit…          0 Cause of death…
#>  3         0 No issues with…         0 No issues wit…          0 Cause of death…
#>  4         0 No issues with…         0 No issues wit…          0 Cause of death…
#>  5         0 No issues with…         0 No issues wit…          0 Cause of death…
#>  6         0 No issues with…         0 No issues wit…          0 Cause of death…
#>  7         0 No issues with…         0 No issues wit…          0 Cause of death…
#>  8         0 No issues with…         0 No issues wit…          0 Cause of death…
#>  9         0 No issues with…         0 No issues wit…          0 Cause of death…
#> 10         0 No issues with…         0 No issues wit…          0 Cause of death…
#> # ℹ 3,603 more rows
#> # ℹ 2 more variables: dod_check <int>, dod_check_note <fct>
…
Results of the per row cause-of-death checks can also be summarised
to give a count of issues found in the dataset.

cod_check_code(
  cod_data_raw_example$code, version = "icd11", 
  sex = cod_data_raw_example$sex, age = cod_data_raw_example$age
) |>
  cod_check_code_summary()
#> $`Code structure`
#> # A tibble: 65 × 2
#>    cod_check_note                                                              n
#>    <fct>                                                                   <int>
#>  1 No issues found in CoD code                                                20
#>  2 CoD code has a period (`.`) character in the wrong place                    0
#>  3 CoD code starts with `O` or `I`                                             0
#>  4 CoD code has a period (`.`) character in the wrong place; CoD code sta…     0
#>  5 CoD code has a number as its second value                                   0
#>  6 CoD code has a period (`.`) character in the wrong place; CoD code has…     0
#>  7 CoD code starts with `O` or `I`; CoD code has a number as its second v…     0
#>  8 CoD code has a period (`.`) character in the wrong place; CoD code sta…     0
#>  9 CoD code has `O` or `I` as its second value                                 0
#> 10 CoD code has a period (`.`) character in the wrong place; CoD code has…     0
#> # ℹ 55 more rows
…
